{
  "env": {
    "browser": true,
    "es6": true
  },
  "globals": {
    "Atomics": "readonly",
    "SharedArrayBuffer": "readonly"
  },
  "plugins": [
    "react"
  ],
  "extends": [
    "react-app",
    "airbnb",
    "prettier"
  ],
  "rules": {
    "react/jsx-filename-extension": [
      1,
      {
        "extensions": [
          ".js",
          ".jsx"
        ]
      }
    ],
    "no-useless-escape": "off",
    "no-script-url": "off",
    "jsx-a11y/anchor-has-content": "off",
    "jsx-a11y/href-no-hash": "off",
    "jsx-a11y/anchor-is-valid": "off",
    "no-template-curly-in-string": "off",
    "react/prop-types": 0,
    "react/state-in-constructor": 0,
    "react/prefer-stateless-function": 0,
    "react/jsx-one-expression-per-line": 0,
    "linebreak-style": 0,
    "react/jsx-wrap-multilines": 0,
    "react/no-danger": 0,
    "react/forbid-prop-types": 0,
    "no-use-before-define": 0,
    "no-param-reassign": 0,
    "import/no-unresolved": 0,
    "import/prefer-default-export": "off",
    "no-console": 0,
    "react/jsx-props-no-spreading": "off"
  },
  "parserOptions": {
    "ecmaFeatures": {
      "legacyDecorators": true,
      "jsx": true
    },
    "ecmaVersion": 2018,
    "sourceType": "module"
  }
}



// default
{
    "env": {
        "browser": true,
        "es6": true
    },
    "extends": [
        "airbnb"
    ],
    "globals": {
        "Atomics": "readonly",
        "SharedArrayBuffer": "readonly"
    },
    "parserOptions": {
        "ecmaFeatures": {
            "jsx": true
        },
        "ecmaVersion": 2018,
        "sourceType": "module"
    },
    "plugins": [
        "react"
    ],
    "rules": {
    }
}